1 10 20
100 200 125
201 210 89
900 1000 174
1 35 112
10 60 113
3 18 21
4 7 17
6 120 119
600 800 171
147 200 125
36 45 110
68 89 116
999 12000 268
1360 1800 180
20000 99999 351
500 532 124
489 602 142
18 455 144
366 387 121
12 16 18
79 99 119
165 357 144
144 156 117
1789 2684 209
1609 35777 324
2 6 9
356 662 145
4896 4956 210
3159 4654 238
800 899 179
978 1200 182
1000 1006 143
9000 10000 260
12000 13000 263
15000 20000 279
13000 14500 276
16000 18050 279
9000 20000 279
36000 40000 306
50000 90000 351
450 560 142
789 950 179
600 665 145
620 680 145
27 32 112
700 875 179
31 65 113
78 160 122
70 150 122
8320 9546 260
8400 8500 203
9000 1001 262
300 421 144
360 392 121
91 108 119
164 177 125
158 189 125
182 203 120
206 230 115
307 309 38
300 318 131
360 403 121
8060 9564 260
87561 90154 333
3156 8916 262
5681 38913 324
156 684 145
2318 1846 183
51984 59516 340
12 65 113
198 219 120
498 3598 217
5326 6541 262
78963 87963 333
3549 2159 217
987 1009 143
199 230 120
178 326 131
182 196 120
15623 16018 253
63598 78000 351
87654 99999 333
12368 14568 276
19954 21546 256
66549 78216 351
1000 2000 182
56545 58765 304
8156 13015 268
354 2359 183
6552 6575 213
65489 88456 351
6941 12165 268
23665 25123 264
250 298 123
100 150 122
106 122 114
1654 1824 180
23548 34108 308
15 34 112
16 24 21
26 35 112
17 29 112
29 65 113
33 57 113
39 45 110
30 40 107
1 50 112
1 657 145
190 380 144
19 30 112
65 70 28
900 1050 174
980 1180 182
165 302 128
255 360 144
248 256 110
3874 3900 145
4500 6870 262
