.............
----------------------------------------------------------------------
Ran 13 tests in 16.187s

OK
Name             Stmts   Miss Branch BrPart  Cover   Missing
------------------------------------------------------------
Collatz.py          45      0     14      0   100%
TestCollatz.py      54      0      0      0   100%
------------------------------------------------------------
TOTAL               99      0     14      0   100%
